{
  "crosswalk": {
    "compliance": [1193, 63, 7, 2, 0],
    "cross_slope": [1107, 63, 7, 2, 0, 0, 86],
    "width": [1263, 0, 0, 0, 0, 0, 2]
  },
  "curb_ramp": {
    "approach_cross_slope": [5217, 5222, 1505, 425, 87, 30, 833],
    "compliance": [5906, 3469, 2180, 1057, 707],
    "condition": [8640, 1508, 2469, 421, 281],
    "cracked_panel_count": [11333, 1548, 330, 87, 21],
    "detectable_warning_type": [5503, 4349, 13, 2429, 1025],
    "detectable_warning_width": [4782, 2289, 1796, 457, 541, 2429, 1025],
    "flare_slope": [153, 42, 41, 20, 23, 98, 12942],
    "gutter_cross_slope": [8741, 2722, 641, 138, 35, 17, 1025],
    "gutter_running_slope": [9912, 1368, 589, 235, 115, 75, 1025],
    "landing_dimensions": [6800, 564, 104, 27, 5, 6, 570, 5243],
    "landing_slope": [2690, 2977, 1165, 436, 182, 56, 570, 5243],
    "largest_vertical_fault": [9119, 2822, 1378],
    "obstruction": [12068, 1251],
    "ramp_cross_slope": [7878, 3576, 1245, 416, 137, 67],
    "ramp_running_slope": [9551, 903, 566, 1139, 1160],
    "ramp_width": [11383, 913, 706, 184, 93, 40],
    "surface_condition": [9920, 33, 334, 911, 1950, 171],
    "vertical_fault_count": [9099, 2837, 1085, 236, 62]
  },
  "pedestrian_signal": {
    "button_height": [0, 0, 0, 683, 21, 18, 1, 25],
    "button_position_appearance": [400, 627, 421, 534, 203],
    "button_size": [532, 131, 60, 25],
    "compliance": [83, 107, 80, 108, 370],
    "tactile_features": [306, 143]
  },
  "sidewalk": {
    "compliance": [54.9, 143.9, 110.9, 190.1, 193.6],
    "condition": [231.4, 85.7, 161.0, 64.9, 150.4],
    "cracked_panel_count": [261.2, 136.6, 106.5, 64.9, 124.0],
    "largest_vertical_fault": [76.3, 251.2, 365.9],
    "max_cross_slope": [122.7, 282.4, 173.1, 70.5, 25.1, 19.6],
    "obstruction_types": [564.0, 120.7, 8.6],
    "surface_condition": [530.5, 7.3, 63.4, 11.2, 48.8, 32.0],
    "vertical_fault_count": [270.7, 177.1, 110.5, 66.6, 68.4],
    "width": [541.0, 66.4, 60.6, 16.7, 6.6, 2.0]
  }
}
